<svg xmlns="http://www.w3.org/2000/svg" width="86.449" height="86.447" viewBox="0 0 86.449 86.447">
  <path id="Path_2427" data-name="Path 2427" d="M274.961,113.612l-1.7-3.328-6.81,3.48-4.57-1.827,7.049-4.775-2.1-3.1-9.143,6.2-3.739-1.5,6.869-4.618a1.873,1.873,0,0,0,0-3.1l-6.872-4.621,3.742-1.493,9.143,6.2,2.1-3.1-7.049-4.78,4.57-1.824,6.81,3.48,1.7-3.328-3.9-1.992,5.612-2.242-1.391-3.47-5.694,2.274.911-5.367-3.686-.624-1.291,7.613-4.99,2,1.423-8.39-3.684-.624L256.465,91.4l-3.64,1.452,1.782-9.22a1.868,1.868,0,0,0-2.189-2.191L243.2,83.219l1.452-3.634,10.638-1.805-.624-3.686-8.39,1.42,2-4.987,7.613-1.291-.624-3.686-5.367.911,2.276-5.7-3.475-1.386-2.239,5.611-1.99-3.9-3.33,1.7,3.48,6.809-1.827,4.573-4.778-7.051-3.095,2.1,6.2,9.143L239.619,82.1,235,75.234a1.938,1.938,0,0,0-3.1,0l-4.618,6.872-1.495-3.742,6.2-9.143-3.1-2.1-4.778,7.051L222.285,69.6l3.48-6.809-3.328-1.7-1.989,3.9L218.2,59.377l-3.47,1.386,2.274,5.7-5.367-.911-.622,3.686,7.613,1.291,1.994,4.987-8.39-1.42-.622,3.686,10.636,1.805,1.453,3.639-9.22-1.782a1.894,1.894,0,0,0-1.677.516,1.866,1.866,0,0,0-.516,1.677l1.78,9.215-3.634-1.45-1.805-10.638-3.686.624,1.42,8.39-4.99-2-1.29-7.613-3.686.624.911,5.367-5.7-2.274-1.386,3.47,5.611,2.242-3.9,1.992,1.7,3.328,6.809-3.48,4.571,1.824-7.051,4.78,2.1,3.1,9.143-6.2,3.742,1.493-6.874,4.621a1.871,1.871,0,0,0,0,3.1l6.874,4.618-3.742,1.5-9.143-6.2-2.1,3.1,7.051,4.775-4.571,1.827-6.809-3.48-1.7,3.328,3.9,1.992-5.611,2.241,1.386,3.472,5.7-2.272-.911,5.366,3.686.624,1.29-7.615,4.99-1.994-1.42,8.392,3.686.622,1.805-10.638,3.639-1.453-1.782,9.221a1.87,1.87,0,0,0,.514,1.677,1.851,1.851,0,0,0,1.677.514l9.215-1.78-1.45,3.635-10.636,1.805.622,3.686,8.39-1.42-1.994,4.989-7.613,1.291.622,3.684,5.367-.911-2.274,5.7,3.47,1.386,2.246-5.611,1.989,3.9,3.328-1.705-3.48-6.807,1.827-4.571,4.778,7.047,3.1-2.1-6.2-9.145,1.495-3.737,4.618,6.871a1.867,1.867,0,0,0,3.1,0l4.621-6.872,1.495,3.739-6.2,9.145,3.095,2.1,4.778-7.047,1.827,4.571-3.48,6.807,3.33,1.705,1.99-3.9,2.239,5.611,3.475-1.386-2.276-5.7,5.367.911.624-3.684-7.613-1.291-2-4.989,8.39,1.42.624-3.686-10.638-1.805-1.452-3.639,9.22,1.78a1.869,1.869,0,0,0,2.191-2.191l-1.78-9.216,3.635,1.452,1.807,10.638,3.684-.622-1.423-8.392,4.99,1.994,1.291,7.615,3.686-.624-.911-5.366,5.694,2.272,1.391-3.472-5.612-2.241ZM256.422,102.6l-6.684,4.493L238.49,102.6l11.248-4.493Zm-6.01-16.963L248.7,94.5,236.8,99.25l4.752-11.9ZM233.45,79.626l4.493,6.682-4.493,11.25-4.495-11.25Zm-16.964,6.011,8.861,1.71,4.753,11.9L218.2,94.5ZM210.474,102.6l6.684-4.493,11.25,4.493-11.25,4.493Zm6.011,16.964L218.2,110.7l11.9-4.753-4.753,11.9Zm16.964,6.01-4.495-6.684,4.495-11.248,4.493,11.248Zm16.963-6.01-8.861-1.712-4.752-11.9,11.9,4.753Z" transform="translate(-190.226 -59.377)" fill="rgba(39,145,211,0.32)"/>
</svg>
